riscv/src/ac.out
WARNING: common/block_ram/block_ram.v:93: $readmemh: Standard inconsistency, following 1364-2005.
VCD info: dumpfile cpu_run.vcd opened for output.
00000007 00020137          1
0000000b 1b4010ef          2
00000011 ff010113          3
00000015 00100513          4
00000018 00112623          5
00000020 00812423          6
00000028 e39ff0ef          7
0000002e fd010113          8
00000031 02912223          9
00000039 01612823         10
00000041 02112623         11
00000049 02812423         12
00000051 03212023         13
00000059 01312e23         14
00000061 01412c23         15
00000069 01512a23         16
00000072 00050493         17
00000076 00000b13         18
00000079 00055663         19
00000082 00000413         20
00000086 00410913         21
0000008a 00900a13         22
0000008e 00a00593         23
00000092 00048513         24
00000095 13c000ef         25
0000009b 00008293         26
0000009f 0005ca63         27
000000a3 00054c63         28
000000a6 f79ff0ef         29
000000ac 00058613         30
000000b0 00050593         31
000000b4 fff00513         32
000000b8 02060c63         33
000000bc 00100693         34
000000bf 00b67a63         35
000000c8 00000513         36
000000cb 00c5e663         37
000000d4 0016d693         38
000000d8 00165613         39
000000dc fe0696e3         40
000000df 00008067         41
000000e8 00058513         42
000000eb 00028067         43
000000f4 00040a93         44
000000f8 00140413         45
000000fc 03050793         46
00000100 00890733         47
00000104 00048513         48
00000108 00a00593         49
0000010b fef70fa3         50
00000111 00048993         51
00000114 094000ef         52
0000011a 06054063         53
0000011e 0605c663         54
0000011f 00058613         55
00000120 00050593         56
00000121 fff00513         57
00000122 02060c63         58
00000123 00100693         59
00000124 00b67a63         60
0000012a 00000513         61
0000012b 00c5e663         62
00000131 0016d693         63
00000132 00165613         64
00000133 fe0696e3         65
00000134 00008067         66
0000013d 00050493         67
00000141 fd3a46e3         68
00000144 000b0c63         69
0000014d 00890433         70
00000150 00030737         71
00000156 fff44783         72
0000015a fff40413         73
0000015d 00f70023         74
100000164 fe891ae3         75
0000016c 02c12083         76
00000174 02812403         77
0000017c 02412483         78
00000184 02012903         79
0000018c 01c12983         80
00000194 01812a03         81
0000019c 01412a83         82
000001a4 01012b03         83
000001a8 03010113         84
000001ab 00008067         85
000001b3 000307b7         86
000001b8 00a00713         87
000001bb 000015b7         88
000001bf 00009537         89
000001c3 00e78023         90

000001ca c0f58593         91
000001ce 8aa50513         92
000001d2 00058413         93
000001d5 f9dff0ef         94
000001d8 00008293         95
000001d9 0005ca63         96
000001da 00054c63         97
000001db f79ff0ef         98
000001dd 00058613         99
000001de 00050593        100
000001df fff00513        101
000001e0 02060c63        102
000001e1 00100693        103
000001e2 00b67a63        104
000001e3 00c05863        105
000001e7 00161613        106
000001eb 00169693        107
000001ee feb66ae3        108
000001f4 00c05863        109
000001f5 00161613        110
000001f6 00169693        111
000001f7 feb66ae3        112
000001fd 00c05863        113
000001fe 00161613        114
000001ff 00169693        115
00000200 feb66ae3        116
00000206 00c05863        117
00000207 00161613        118
00000208 00169693        119
00000209 feb66ae3        120
0000020a 00000513        121
0000020b 00c5e663        122
00000211 0016d693        123
00000212 00165613        124
00000213 fe0696e3        125
00000219 00c5e663        126
0000021a 40c585b3        127
0000021e 00d56533        128
0000021f 0016d693        129
00000220 00165613        130
00000221 fe0696e3        131
00000226 00c5e663        132
0000022c 0016d693        133
0000022d 00165613        134
0000022e fe0696e3        135
00000234 00c5e663        136
00000235 40c585b3        137
00000236 00d56533        138
00000237 0016d693        139
00000238 00165613        140
00000239 fe0696e3        141
0000023f 00c5e663        142
00000240 40c585b3        143
00000241 00d56533        144
00000242 0016d693        145
00000243 00165613        146
00000244 fe0696e3        147
00000245 00008067        148
0000024b 00058513        149
0000024c 00028067        150
00000255 00050593        151
00000259 00040513        152
0000025c fe0598e3        153
00000262 00058413        154
00000263 f9dff0ef        155
00000265 00008293        156
00000266 0005ca63        157
00000267 00054c63        158
00000268 f79ff0ef        159
0000026a 00058613        160
0000026b 00050593        161
0000026c fff00513        162
0000026d 02060c63        163
0000026e 00100693        164
0000026f 00b67a63        165
00000270 00c05863        166
00000271 00161613        167
00000272 00169693        168
00000273 feb66ae3        169
00000279 00c05863        170
0000027a 00161613        171
0000027b 00169693        172
0000027c feb66ae3        173
0000027d 00000513        174
0000027e 00c5e663        175
00000284 0016d693        176
00000285 00165613        177
00000286 fe0696e3        178
0000028c 00c5e663        179
0000028d 40c585b3        180
0000028e 00d56533        181
0000028f 0016d693        182
00000290 00165613        183
00000291 fe0696e3        184
00000297 00c5e663        185
00000298 40c585b3        186
00000299 00d56533        187
0000029a 0016d693        188
0000029b 00165613        189
0000029c fe0696e3        190
0000029d 00008067        191
000002a3 00058513        192
000002a4 00028067        193
000002aa 00050593        194
000002ab 00040513        195
000002ac fe0598e3        196
000002af e05ff0ef        197
000002b2 fd010113        198
000002b3 02912223        199
000002b4 01612823        200
000002b5 02112623        201
000002b6 02812423        202
000002b7 03212023        203
000002b8 01312e23        204
000002b9 01412c23        205
000002ba 01512a23        206
000002bb 00050493        207
000002bc 00000b13        208
000002bd 00055663        209
000002c3 00000413        210
000002c4 00410913        211
000002c5 00900a13        212
000002c6 00a00593        213
000002c7 00048513        214
000002c8 13c000ef        215
000002ca 00008293        216
000002cb 0005ca63        217
000002cc 00054c63        218
000002cd f79ff0ef        219
000002cf 00058613        220
000002d0 00050593        221
000002d1 fff00513        222
000002d2 02060c63        223
000002d3 00100693        224
000002d4 00b67a63        225
000002d5 00c05863        226
000002d6 00161613        227
000002d7 00169693        228
000002d8 feb66ae3        229
000002de 00c05863        230
000002df 00161613        231
000002e0 00169693        232
000002e1 feb66ae3        233
000002e7 00c05863        234
000002e8 00161613        235
000002e9 00169693        236
000002ea feb66ae3        237
000002f0 00c05863        238
000002f1 00161613        239
000002f2 00169693        240
000002f3 feb66ae3        241
000002f9 00c05863        242
000002fa 00161613        243
000002fb 00169693        244
000002fc feb66ae3        245
00000302 00c05863        246
00000303 00161613        247
00000304 00169693        248
00000305 feb66ae3        249
0000030b 00c05863        250
0000030c 00161613        251
0000030d 00169693        252
0000030e feb66ae3        253
0000030f 00000513        254
00000310 00c5e663        255
00000316 0016d693        256
00000317 00165613        257
00000318 fe0696e3        258
0000031e 00c5e663        259
0000031f 40c585b3        260
00000320 00d56533        261
00000321 0016d693        262
00000322 00165613        263
00000323 fe0696e3        264
00000329 00c5e663        265
0000032a 40c585b3        266
0000032b 00d56533        267
0000032c 0016d693        268
0000032d 00165613        269
0000032e fe0696e3        270
00000333 00c5e663        271
00000339 0016d693        272
0000033a 00165613        273
0000033b fe0696e3        274
00000340 00c5e663        275
00000346 0016d693        276
00000347 00165613        277
00000348 fe0696e3        278
0000034e 00c5e663        279
0000034f 40c585b3        280
00000350 00d56533        281
00000351 0016d693        282
00000352 00165613        283
00000353 fe0696e3        284
00000359 00c5e663        285
0000035a 40c585b3        286
0000035b 00d56533        287
0000035c 0016d693        288
0000035d 00165613        289
0000035e fe0696e3        290
00000363 00c5e663        291
00000369 0016d693        292
0000036a 00165613        293
0000036b fe0696e3        294
0000036c 00008067        295
00000372 00058513        296
00000373 00028067        297
00000379 00040a93        298
0000037a 00140413        299
0000037b 03050793        300
0000037c 00890733        301
0000037d 00048513        302
0000037e 00a00593        303
0000037f fef70fa3        304
00000380 00048993        305
00000381 094000ef        306
00000383 06054063        307
00000384 0605c663        308
00000385 00058613        309
00000386 00050593        310
00000387 fff00513        311
00000388 02060c63        312
00000389 00100693        313
0000038a 00b67a63        314
0000038b 00c05863        315
0000038c 00161613        316
0000038d 00169693        317
0000038e feb66ae3        318
00000394 00c05863        319
00000395 00161613        320
00000396 00169693        321
00000397 feb66ae3        322
0000039d 00c05863        323
0000039e 00161613        324
0000039f 00169693        325
000003a0 feb66ae3        326
000003a6 00c05863        327
000003a7 00161613        328
000003a8 00169693        329
000003a9 feb66ae3        330
000003af 00c05863        331
000003b0 00161613        332
000003b1 00169693        333
000003b2 feb66ae3        334
000003b8 00c05863        335
000003b9 00161613        336
000003ba 00169693        337
000003bb feb66ae3        338
000003c1 00c05863        339
000003c2 00161613        340
000003c3 00169693        341
000003c4 feb66ae3        342
000003c5 00000513        343
000003c6 00c5e663        344
000003cc 0016d693        345
000003cd 00165613        346
000003ce fe0696e3        347
000003d4 00c5e663        348
000003d5 40c585b3        349
000003d6 00d56533        350
000003d7 0016d693        351
000003d8 00165613        352
000003d9 fe0696e3        353
000003df 00c5e663        354
000003e0 40c585b3        355
000003e1 00d56533        356
000003e2 0016d693        357
000003e3 00165613        358
000003e4 fe0696e3        359
000003e9 00c5e663        360
000003ef 0016d693        361
000003f0 00165613        362
000003f1 fe0696e3        363
000003f6 00c5e663        364
000003fc 0016d693        365
000003fd 00165613        366
000003fe fe0696e3        367
00000404 00c5e663        368
00000405 40c585b3        369
00000406 00d56533        370
00000407 0016d693        371
00000408 00165613        372
00000409 fe0696e3        373
0000040f 00c5e663        374
00000410 40c585b3        375
00000411 00d56533        376
00000412 0016d693        377
00000413 00165613        378
00000414 fe0696e3        379
00000419 00c5e663        380
0000041f 0016d693        381
00000420 00165613        382
00000421 fe0696e3        383
00000422 00008067        384
00000428 00050493        385
00000429 fd3a46e3        386
0000042f 00a00593        387
00000430 00048513        388
00000431 13c000ef        389
00000433 00008293        390
00000434 0005ca63        391
00000435 00054c63        392
00000436 f79ff0ef        393
00000438 00058613        394
00000439 00050593        395
0000043a fff00513        396
0000043b 02060c63        397
0000043c 00100693        398
0000043d 00b67a63        399
0000043e 00c05863        400
0000043f 00161613        401
00000440 00169693        402
00000441 feb66ae3        403
00000447 00c05863        404
00000448 00161613        405
00000449 00169693        406
0000044a feb66ae3        407
00000450 00c05863        408
00000451 00161613        409
00000452 00169693        410
00000453 feb66ae3        411
00000459 00c05863        412
0000045a 00161613        413
0000045b 00169693        414
0000045c feb66ae3        415
0000045d 00000513        416
0000045e 00c5e663        417
00000464 0016d693        418
00000465 00165613        419
00000466 fe0696e3        420
0000046c 00c5e663        421
0000046d 40c585b3        422
0000046e 00d56533        423
0000046f 0016d693        424
00000470 00165613        425
00000471 fe0696e3        426
00000476 00c5e663        427
0000047c 0016d693        428
0000047d 00165613        429
0000047e fe0696e3        430
00000484 00c5e663        431
00000485 40c585b3        432
00000486 00d56533        433
00000487 0016d693        434
00000488 00165613        435
00000489 fe0696e3        436
0000048e 00c5e663        437
00000494 0016d693        438
00000495 00165613        439
00000496 fe0696e3        440
00000497 00008067        441
0000049d 00058513        442
0000049e 00028067        443
000004a4 00040a93        444
000004a5 00140413        445
000004a6 03050793        446
000004a7 00890733        447
000004a8 00048513        448
000004a9 00a00593        449
000004aa fef70fa3        450
000004ab 00048993        451
000004ac 094000ef        452
000004ae 06054063        453
000004af 0605c663        454
000004b0 00058613        455
000004b1 00050593        456
000004b2 fff00513        457
000004b3 02060c63        458
000004b4 00100693        459
000004b5 00b67a63        460
000004b6 00c05863        461
000004b7 00161613        462
000004b8 00169693        463
000004b9 feb66ae3        464
000004bf 00c05863        465
000004c0 00161613        466
000004c1 00169693        467
000004c2 feb66ae3        468
000004c8 00c05863        469
000004c9 00161613        470
000004ca 00169693        471
000004cb feb66ae3        472
000004d1 00c05863        473
000004d2 00161613        474
000004d3 00169693        475
000004d4 feb66ae3        476
000004d5 00000513        477
000004d6 00c5e663        478
000004dc 0016d693        479
000004dd 00165613        480
000004de fe0696e3        481
000004e4 00c5e663        482
000004e5 40c585b3        483
000004e6 00d56533        484
000004e7 0016d693        485
000004e8 00165613        486
000004e9 fe0696e3        487
000004ee 00c5e663        488
000004f4 0016d693        489
000004f5 00165613        490
000004f6 fe0696e3        491
000004fc 00c5e663        492
000004fd 40c585b3        493
000004fe 00d56533        494
000004ff 0016d693        495
00000500 00165613        496
00000501 fe0696e3        497
00000506 00c5e663        498
0000050c 0016d693        499
0000050d 00165613        500
0000050e fe0696e3        501
0000050f 00008067        502
00000515 00050493        503
00000516 fd3a46e3        504
0000051c 00a00593        505
0000051d 00048513        506
0000051e 13c000ef        507
00000520 00008293        508
00000521 0005ca63        509
00000522 00054c63        510
00000523 f79ff0ef        511
00000525 00058613        512
00000526 00050593        513
00000527 fff00513        514
00000528 02060c63        515
00000529 00100693        516
0000052a 00b67a63        517
00000530 00000513        518
00000531 00c5e663        519
00000532 40c585b3        520
00000533 00d56533        521
00000534 0016d693        522
00000535 00165613        523
00000536 fe0696e3        524
00000537 00008067        525
0000053d 00058513        526
0000053e 00028067        527
00000544 00040a93        528
00000545 00140413        529
00000546 03050793        530
00000547 00890733        531
00000548 00048513        532
00000549 00a00593        533
0000054a fef70fa3        534
0000054b 00048993        535
0000054c 094000ef        536
0000054e 06054063        537
0000054f 0605c663        538
00000550 00058613        539
00000551 00050593        540
00000552 fff00513        541
00000553 02060c63        542
00000554 00100693        543
00000555 00b67a63        544
0000055b 00000513        545
0000055c 00c5e663        546
0000055d 40c585b3        547
0000055e 00d56533        548
0000055f 0016d693        549
00000560 00165613        550
00000561 fe0696e3        551
00000562 00008067        552
00000568 00050493        553
00000569 fd3a46e3        554
0000056f 00a00593        555
00000570 00048513        556
00000571 13c000ef        557
00000573 00008293        558
00000574 0005ca63        559
00000575 00054c63        560
00000576 f79ff0ef        561
00000578 00058613        562
00000579 00050593        563
0000057a fff00513        564
0000057b 02060c63        565
0000057c 00100693        566
0000057d 00b67a63        567
00000583 00000513        568
00000584 00c5e663        569
0000058a 0016d693        570
0000058b 00165613        571
0000058c fe0696e3        572
0000058d 00008067        573
00000593 00058513        574
00000594 00028067        575
0000059a 00040a93        576
0000059b 00140413        577
0000059c 03050793        578
0000059d 00890733        579
0000059e 00048513        580
0000059f 00a00593        581
000005a0 fef70fa3        582
000005a1 00048993        583
000005a2 094000ef        584
000005a4 06054063        585
000005a5 0605c663        586
000005a6 00058613        587
000005a7 00050593        588
000005a8 fff00513        589
000005a9 02060c63        590
000005aa 00100693        591
000005ab 00b67a63        592
000005b1 00000513        593
000005b2 00c5e663        594
000005b8 0016d693        595
000005b9 00165613        596
000005ba fe0696e3        597
000005bb 00008067        598
000005c1 00050493        599
000005c2 fd3a46e3        600
000005c3 000b0c63        601
000005c9 00890433        602
000005ca 00030737        603
000005cc fff44783        604
000005cd fff40413        605
000005ce 00f70023        606
1000005cf fe891ae3        607
000005d6 fff44783        608
000005d7 fff40413        609
000005d8 00f70023        610
0000005d9 fe891ae3        611
000005e0 fff44783        612
000005e1 fff40413        613
000005e2 00f70023        614
2000005e3 fe891ae3        615
000005ea fff44783        616
000005eb fff40413        617
000005ec 00f70023        618
9000005ed fe891ae3        619
000005f3 02c12083        620
000005f7 02812403        621
000005fb 02412483        622
000005ff 02012903        623
00000603 01c12983        624
00000607 01812a03        625
0000060b 01412a83        626
0000060f 01012b03        627
00000610 03010113        628
00000611 00008067        629
00000619 000307b7        630
0000061e 00a00713        631
00000621 00001537        632
00000625 00e78023        633

0000062c 60300593        634
00000630 b5b50513        635
00000634 00058413        636
00000637 f6dff0ef        637
0000063a 00008293        638
0000063b 0005ca63        639
0000063c 00054c63        640
0000063d f79ff0ef        641
0000063f 00058613        642
00000640 00050593        643
00000641 fff00513        644
00000642 02060c63        645
00000643 00100693        646
00000644 00b67a63        647
00000645 00c05863        648
00000646 00161613        649
00000647 00169693        650
00000648 feb66ae3        651
00000649 00000513        652
0000064a 00c5e663        653
00000650 0016d693        654
00000651 00165613        655
00000652 fe0696e3        656
00000658 00c5e663        657
00000659 40c585b3        658
0000065a 00d56533        659
0000065b 0016d693        660
0000065c 00165613        661
0000065d fe0696e3        662
0000065e 00008067        663
00000664 00058513        664
00000665 00028067        665
0000066e 00050593        666
00000672 00040513        667
00000675 fe0598e3        668
0000067b 00058413        669
0000067c f6dff0ef        670
0000067e 00008293        671
0000067f 0005ca63        672
00000680 00054c63        673
00000681 f79ff0ef        674
00000683 00058613        675
00000684 00050593        676
00000685 fff00513        677
00000686 02060c63        678
00000687 00100693        679
00000688 00b67a63        680
00000689 00c05863        681
0000068a 00161613        682
0000068b 00169693        683
0000068c feb66ae3        684
0000068d 00000513        685
0000068e 00c5e663        686
00000694 0016d693        687
00000695 00165613        688
00000696 fe0696e3        689
0000069c 00c5e663        690
0000069d 40c585b3        691
0000069e 00d56533        692
0000069f 0016d693        693
000006a0 00165613        694
000006a1 fe0696e3        695
000006a2 00008067        696
000006a8 00058513        697
000006a9 00028067        698
000006af 00050593        699
000006b0 00040513        700
000006b1 fe0598e3        701
000006b7 00058413        702
000006b8 f6dff0ef        703
000006ba 00008293        704
000006bb 0005ca63        705
000006bc 00054c63        706
000006bd f79ff0ef        707
000006bf 00058613        708
000006c0 00050593        709
000006c1 fff00513        710
000006c2 02060c63        711
000006c3 00100693        712
000006c4 00b67a63        713
000006c5 00c05863        714
000006c6 00161613        715
000006c7 00169693        716
000006c8 feb66ae3        717
000006ce 00c05863        718
000006cf 00161613        719
000006d0 00169693        720
000006d1 feb66ae3        721
000006d7 00c05863        722
000006d8 00161613        723
000006d9 00169693        724
000006da feb66ae3        725
000006db 00000513        726
000006dc 00c5e663        727
000006dd 40c585b3        728
000006de 00d56533        729
000006df 0016d693        730
000006e0 00165613        731
000006e1 fe0696e3        732
000006e6 00c5e663        733
000006ec 0016d693        734
000006ed 00165613        735
000006ee fe0696e3        736
000006f3 00c5e663        737
000006f9 0016d693        738
000006fa 00165613        739
000006fb fe0696e3        740
00000700 00c5e663        741
00000706 0016d693        742
00000707 00165613        743
00000708 fe0696e3        744
00000709 00008067        745
0000070f 00058513        746
00000710 00028067        747
00000716 00050593        748
00000717 00040513        749
00000718 fe0598e3        750
00000719 dd5ff0ef        751
0000071b fd010113        752
0000071c 02912223        753
0000071d 01612823        754
0000071e 02112623        755
0000071f 02812423        756
00000720 03212023        757
00000721 01312e23        758
00000722 01412c23        759
00000723 01512a23        760
00000724 00050493        761
00000725 00000b13        762
00000726 00055663        763
0000072c 00000413        764
0000072d 00410913        765
0000072e 00900a13        766
0000072f 00a00593        767
00000730 00048513        768
00000731 13c000ef        769
00000733 00008293        770
00000734 0005ca63        771
00000735 00054c63        772
00000736 f79ff0ef        773
00000738 00058613        774
00000739 00050593        775
0000073a fff00513        776
0000073b 02060c63        777
0000073c 00100693        778
0000073d 00b67a63        779
0000073e 00c05863        780
0000073f 00161613        781
00000740 00169693        782
00000741 feb66ae3        783
00000747 00c05863        784
00000748 00161613        785
00000749 00169693        786
0000074a feb66ae3        787
00000750 00c05863        788
00000751 00161613        789
00000752 00169693        790
00000753 feb66ae3        791
00000759 00c05863        792
0000075a 00161613        793
0000075b 00169693        794
0000075c feb66ae3        795
00000762 00c05863        796
00000763 00161613        797
00000764 00169693        798
00000765 feb66ae3        799
00000766 00000513        800
00000767 00c5e663        801
0000076d 0016d693        802
0000076e 00165613        803
0000076f fe0696e3        804
00000775 00c5e663        805
00000776 40c585b3        806
00000777 00d56533        807
00000778 0016d693        808
00000779 00165613        809
0000077a fe0696e3        810
0000077f 00c5e663        811
00000785 0016d693        812
00000786 00165613        813
00000787 fe0696e3        814
0000078c 00c5e663        815
00000792 0016d693        816
00000793 00165613        817
00000794 fe0696e3        818
00000799 00c5e663        819
0000079f 0016d693        820
000007a0 00165613        821
000007a1 fe0696e3        822
000007a7 00c5e663        823
000007a8 40c585b3        824
000007a9 00d56533        825
000007aa 0016d693        826
000007ab 00165613        827
000007ac fe0696e3        828
000007ad 00008067        829
000007b3 00058513        830
000007b4 00028067        831
000007ba 00040a93        832
000007bb 00140413        833
000007bc 03050793        834
000007bd 00890733        835
000007be 00048513        836
000007bf 00a00593        837
000007c0 fef70fa3        838
000007c1 00048993        839
000007c2 094000ef        840
000007c4 06054063        841
000007c5 0605c663        842
000007c6 00058613        843
000007c7 00050593        844
000007c8 fff00513        845
000007c9 02060c63        846
000007ca 00100693        847
000007cb 00b67a63        848
000007cc 00c05863        849
000007cd 00161613        850
000007ce 00169693        851
000007cf feb66ae3        852
000007d5 00c05863        853
000007d6 00161613        854
000007d7 00169693        855
000007d8 feb66ae3        856
000007de 00c05863        857
000007df 00161613        858
000007e0 00169693        859
000007e1 feb66ae3        860
000007e7 00c05863        861
000007e8 00161613        862
000007e9 00169693        863
000007ea feb66ae3        864
000007f0 00c05863        865
000007f1 00161613        866
000007f2 00169693        867
000007f3 feb66ae3        868
000007f4 00000513        869
000007f5 00c5e663        870
000007fb 0016d693        871
000007fc 00165613        872
000007fd fe0696e3        873
00000803 00c5e663        874
00000804 40c585b3        875
00000805 00d56533        876
00000806 0016d693        877
00000807 00165613        878
00000808 fe0696e3        879
0000080d 00c5e663        880
00000813 0016d693        881
00000814 00165613        882
00000815 fe0696e3        883
0000081a 00c5e663        884
00000820 0016d693        885
00000821 00165613        886
00000822 fe0696e3        887
00000827 00c5e663        888
0000082d 0016d693        889
0000082e 00165613        890
0000082f fe0696e3        891
00000835 00c5e663        892
00000836 40c585b3        893
00000837 00d56533        894
00000838 0016d693        895
00000839 00165613        896
0000083a fe0696e3        897
0000083b 00008067        898
00000841 00050493        899
00000842 fd3a46e3        900
00000848 00a00593        901
00000849 00048513        902
0000084a 13c000ef        903
0000084c 00008293        904
0000084d 0005ca63        905
0000084e 00054c63        906
0000084f f79ff0ef        907
00000851 00058613        908
00000852 00050593        909
00000853 fff00513        910
00000854 02060c63        911
00000855 00100693        912
00000856 00b67a63        913
00000857 00c05863        914
00000858 00161613        915
00000859 00169693        916
0000085a feb66ae3        917
0000085b 00000513        918
0000085c 00c5e663        919
00000862 0016d693        920
00000863 00165613        921
00000864 fe0696e3        922
0000086a 00c5e663        923
0000086b 40c585b3        924
0000086c 00d56533        925
0000086d 0016d693        926
0000086e 00165613        927
0000086f fe0696e3        928
00000870 00008067        929
00000876 00058513        930
00000877 00028067        931
0000087d 00040a93        932
0000087e 00140413        933
0000087f 03050793        934
00000880 00890733        935
00000881 00048513        936
00000882 00a00593        937
00000883 fef70fa3        938
00000884 00048993        939
00000885 094000ef        940
00000887 06054063        941
00000888 0605c663        942
00000889 00058613        943
0000088a 00050593        944
0000088b fff00513        945
0000088c 02060c63        946
0000088d 00100693        947
0000088e 00b67a63        948
0000088f 00c05863        949
00000890 00161613        950
00000891 00169693        951
00000892 feb66ae3        952
00000893 00000513        953
00000894 00c5e663        954
0000089a 0016d693        955
0000089b 00165613        956
0000089c fe0696e3        957
000008a2 00c5e663        958
000008a3 40c585b3        959
000008a4 00d56533        960
000008a5 0016d693        961
000008a6 00165613        962
000008a7 fe0696e3        963
000008a8 00008067        964
000008ae 00050493        965
000008af fd3a46e3        966
000008b5 00a00593        967
000008b6 00048513        968
000008b7 13c000ef        969
000008b9 00008293        970
000008ba 0005ca63        971
000008bb 00054c63        972
000008bc f79ff0ef        973
000008be 00058613        974
000008bf 00050593        975
000008c0 fff00513        976
000008c1 02060c63        977
000008c2 00100693        978
000008c3 00b67a63        979
000008c9 00000513        980
000008ca 00c5e663        981
000008d0 0016d693        982
000008d1 00165613        983
000008d2 fe0696e3        984
000008d3 00008067        985
000008d9 00058513        986
000008da 00028067        987
000008e0 00040a93        988
000008e1 00140413        989
000008e2 03050793        990
000008e3 00890733        991
000008e4 00048513        992
000008e5 00a00593        993
000008e6 fef70fa3        994
000008e7 00048993        995
000008e8 094000ef        996
000008ea 06054063        997
000008eb 0605c663        998
000008ec 00058613        999
000008ed 00050593       1000
000008ee fff00513       1001
000008ef 02060c63       1002
000008f0 00100693       1003
000008f1 00b67a63       1004
000008f7 00000513       1005
000008f8 00c5e663       1006
000008fe 0016d693       1007
000008ff 00165613       1008
00000900 fe0696e3       1009
00000901 00008067       1010
00000907 00050493       1011
00000908 fd3a46e3       1012
00000909 000b0c63       1013
0000090f 00890433       1014
00000910 00030737       1015
00000912 fff44783       1016
00000913 fff40413       1017
00000914 00f70023       1018
100000915 fe891ae3       1019
0000091c fff44783       1020
0000091d fff40413       1021
0000091e 00f70023       1022
70000091f fe891ae3       1023
00000926 fff44783       1024
00000927 fff40413       1025
00000928 00f70023       1026
100000929 fe891ae3       1027
0000092f 02c12083       1028
00000933 02812403       1029
00000937 02412483       1030
0000093b 02012903       1031
0000093f 01c12983       1032
00000943 01812a03       1033
00000947 01412a83       1034
0000094b 01012b03       1035
0000094c 03010113       1036
0000094d 00008067       1037
00000955 000307b7       1038
0000095a 00a00713       1039
0000095d 00e78023       1040

00000968 00c12083       1041
00000970 00812403       1042
00000974 00000513       1043
00000978 01010113       1044
0000097b 00008067       1045
00000984 0ff00513       1046
00000987 000306b7       1047
0000098b 00a68223       1048
IO:Return
cycles_cnt:      2445
